(kicad_sch
	(version 20231120)
	(generator "eeschema")
	(generator_version "8.0")
	(uuid "1237ffcc-453f-4c20-84db-c7911bcc859a")
	(paper "A4")
	(lib_symbols
		(symbol "Device:C"
			(pin_numbers hide)
			(pin_names
				(offset 0.254)
			)
			(exclude_from_sim no)
			(in_bom yes)
			(on_board yes)
			(property "Reference" "C"
				(at 0.635 2.54 0)
				(effects
					(font
						(size 1.27 1.27)
					)
					(justify left)
				)
			)
			(property "Value" "C"
				(at 0.635 -2.54 0)
				(effects
					(font
						(size 1.27 1.27)
					)
					(justify left)
				)
			)
			(property "Footprint" ""
				(at 0.9652 -3.81 0)
				(effects
					(font
						(size 1.27 1.27)
					)
					(hide yes)
				)
			)
			(property "Datasheet" "~"
				(at 0 0 0)
				(effects
					(font
						(size 1.27 1.27)
					)
					(hide yes)
				)
			)
			(property "Description" "Unpolarized capacitor"
				(at 0 0 0)
				(effects
					(font
						(size 1.27 1.27)
					)
					(hide yes)
				)
			)
			(property "ki_keywords" "cap capacitor"
				(at 0 0 0)
				(effects
					(font
						(size 1.27 1.27)
					)
					(hide yes)
				)
			)
			(property "ki_fp_filters" "C_*"
				(at 0 0 0)
				(effects
					(font
						(size 1.27 1.27)
					)
					(hide yes)
				)
			)
			(symbol "C_0_1"
				(polyline
					(pts
						(xy -2.032 -0.762) (xy 2.032 -0.762)
					)
					(stroke
						(width 0.508)
						(type default)
					)
					(fill
						(type none)
					)
				)
				(polyline
					(pts
						(xy -2.032 0.762) (xy 2.032 0.762)
					)
					(stroke
						(width 0.508)
						(type default)
					)
					(fill
						(type none)
					)
				)
			)
			(symbol "C_1_1"
				(pin passive line
					(at 0 3.81 270)
					(length 2.794)
					(name "~"
						(effects
							(font
								(size 1.27 1.27)
							)
						)
					)
					(number "1"
						(effects
							(font
								(size 1.27 1.27)
							)
						)
					)
				)
				(pin passive line
					(at 0 -3.81 90)
					(length 2.794)
					(name "~"
						(effects
							(font
								(size 1.27 1.27)
							)
						)
					)
					(number "2"
						(effects
							(font
								(size 1.27 1.27)
							)
						)
					)
				)
			)
		)
		(symbol "Device:LED"
			(pin_numbers hide)
			(pin_names
				(offset 1.016) hide)
			(exclude_from_sim no)
			(in_bom yes)
			(on_board yes)
			(property "Reference" "D"
				(at 0 2.54 0)
				(effects
					(font
						(size 1.27 1.27)
					)
				)
			)
			(property "Value" "LED"
				(at 0 -2.54 0)
				(effects
					(font
						(size 1.27 1.27)
					)
				)
			)
			(property "Footprint" ""
				(at 0 0 0)
				(effects
					(font
						(size 1.27 1.27)
					)
					(hide yes)
				)
			)
			(property "Datasheet" "~"
				(at 0 0 0)
				(effects
					(font
						(size 1.27 1.27)
					)
					(hide yes)
				)
			)
			(property "Description" "Light emitting diode"
				(at 0 0 0)
				(effects
					(font
						(size 1.27 1.27)
					)
					(hide yes)
				)
			)
			(property "ki_keywords" "LED diode"
				(at 0 0 0)
				(effects
					(font
						(size 1.27 1.27)
					)
					(hide yes)
				)
			)
			(property "ki_fp_filters" "LED* LED_SMD:* LED_THT:*"
				(at 0 0 0)
				(effects
					(font
						(size 1.27 1.27)
					)
					(hide yes)
				)
			)
			(symbol "LED_0_1"
				(polyline
					(pts
						(xy -1.27 -1.27) (xy -1.27 1.27)
					)
					(stroke
						(width 0.254)
						(type default)
					)
					(fill
						(type none)
					)
				)
				(polyline
					(pts
						(xy -1.27 0) (xy 1.27 0)
					)
					(stroke
						(width 0)
						(type default)
					)
					(fill
						(type none)
					)
				)
				(polyline
					(pts
						(xy 1.27 -1.27) (xy 1.27 1.27) (xy -1.27 0) (xy 1.27 -1.27)
					)
					(stroke
						(width 0.254)
						(type default)
					)
					(fill
						(type none)
					)
				)
				(polyline
					(pts
						(xy -3.048 -0.762) (xy -4.572 -2.286) (xy -3.81 -2.286) (xy -4.572 -2.286) (xy -4.572 -1.524)
					)
					(stroke
						(width 0)
						(type default)
					)
					(fill
						(type none)
					)
				)
				(polyline
					(pts
						(xy -1.778 -0.762) (xy -3.302 -2.286) (xy -2.54 -2.286) (xy -3.302 -2.286) (xy -3.302 -1.524)
					)
					(stroke
						(width 0)
						(type default)
					)
					(fill
						(type none)
					)
				)
			)
			(symbol "LED_1_1"
				(pin passive line
					(at -3.81 0 0)
					(length 2.54)
					(name "K"
						(effects
							(font
								(size 1.27 1.27)
							)
						)
					)
					(number "1"
						(effects
							(font
								(size 1.27 1.27)
							)
						)
					)
				)
				(pin passive line
					(at 3.81 0 180)
					(length 2.54)
					(name "A"
						(effects
							(font
								(size 1.27 1.27)
							)
						)
					)
					(number "2"
						(effects
							(font
								(size 1.27 1.27)
							)
						)
					)
				)
			)
		)
		(symbol "Device:R"
			(pin_numbers hide)
			(pin_names
				(offset 0)
			)
			(exclude_from_sim no)
			(in_bom yes)
			(on_board yes)
			(property "Reference" "R"
				(at 2.032 0 90)
				(effects
					(font
						(size 1.27 1.27)
					)
				)
			)
			(property "Value" "R"
				(at 0 0 90)
				(effects
					(font
						(size 1.27 1.27)
					)
				)
			)
			(property "Footprint" ""
				(at -1.778 0 90)
				(effects
					(font
						(size 1.27 1.27)
					)
					(hide yes)
				)
			)
			(property "Datasheet" "~"
				(at 0 0 0)
				(effects
					(font
						(size 1.27 1.27)
					)
					(hide yes)
				)
			)
			(property "Description" "Resistor"
				(at 0 0 0)
				(effects
					(font
						(size 1.27 1.27)
					)
					(hide yes)
				)
			)
			(property "ki_keywords" "R res resistor"
				(at 0 0 0)
				(effects
					(font
						(size 1.27 1.27)
					)
					(hide yes)
				)
			)
			(property "ki_fp_filters" "R_*"
				(at 0 0 0)
				(effects
					(font
						(size 1.27 1.27)
					)
					(hide yes)
				)
			)
			(symbol "R_0_1"
				(rectangle
					(start -1.016 -2.54)
					(end 1.016 2.54)
					(stroke
						(width 0.254)
						(type default)
					)
					(fill
						(type none)
					)
				)
			)
			(symbol "R_1_1"
				(pin passive line
					(at 0 3.81 270)
					(length 1.27)
					(name "~"
						(effects
							(font
								(size 1.27 1.27)
							)
						)
					)
					(number "1"
						(effects
							(font
								(size 1.27 1.27)
							)
						)
					)
				)
				(pin passive line
					(at 0 -3.81 90)
					(length 1.27)
					(name "~"
						(effects
							(font
								(size 1.27 1.27)
							)
						)
					)
					(number "2"
						(effects
							(font
								(size 1.27 1.27)
							)
						)
					)
				)
			)
		)
		(symbol "RF_Module:DWM1000"
			(pin_names
				(offset 1.016)
			)
			(exclude_from_sim no)
			(in_bom yes)
			(on_board yes)
			(property "Reference" "DWM"
				(at 7.62 25.4 0)
				(effects
					(font
						(size 1.27 1.27)
					)
				)
			)
			(property "Value" "DWM1000"
				(at 1.27 3.81 0)
				(effects
					(font
						(size 1.27 1.27)
					)
				)
			)
			(property "Footprint" "RF_Module:DWM1000"
				(at 17.78 -25.4 0)
				(effects
					(font
						(size 1.27 1.27)
					)
					(hide yes)
				)
			)
			(property "Datasheet" "https://www.decawave.com/sites/default/files/resources/dwm1000-datasheet-v1.3.pdf"
				(at 60.96 -27.94 0)
				(effects
					(font
						(size 1.27 1.27)
					)
					(hide yes)
				)
			)
			(property "Description" "Ultra wide band RF module With ranging location capabilities"
				(at 0 0 0)
				(effects
					(font
						(size 1.27 1.27)
					)
					(hide yes)
				)
			)
			(property "ki_keywords" "DWM1000,Decawave,RF,ranging,UWB"
				(at 0 0 0)
				(effects
					(font
						(size 1.27 1.27)
					)
					(hide yes)
				)
			)
			(property "ki_fp_filters" "*DWM1000*"
				(at 0 0 0)
				(effects
					(font
						(size 1.27 1.27)
					)
					(hide yes)
				)
			)
			(symbol "DWM1000_0_1"
				(rectangle
					(start 17.78 22.86)
					(end -17.78 -22.86)
					(stroke
						(width 0.254)
						(type default)
					)
					(fill
						(type background)
					)
				)
			)
			(symbol "DWM1000_1_1"
				(pin output line
					(at -22.86 5.08 0)
					(length 5.08)
					(name "EXTON"
						(effects
							(font
								(size 1.27 1.27)
							)
						)
					)
					(number "1"
						(effects
							(font
								(size 1.27 1.27)
							)
						)
					)
				)
				(pin bidirectional line
					(at 22.86 -12.7 180)
					(length 5.08)
					(name "GPIO5/EXTTXE/SPIPOL"
						(effects
							(font
								(size 1.27 1.27)
							)
						)
					)
					(number "10"
						(effects
							(font
								(size 1.27 1.27)
							)
						)
					)
				)
				(pin bidirectional line
					(at 22.86 -10.16 180)
					(length 5.08)
					(name "GPIO4/EXTPA"
						(effects
							(font
								(size 1.27 1.27)
							)
						)
					)
					(number "11"
						(effects
							(font
								(size 1.27 1.27)
							)
						)
					)
				)
				(pin bidirectional line
					(at 22.86 -7.62 180)
					(length 5.08)
					(name "GPIO3/TXLED"
						(effects
							(font
								(size 1.27 1.27)
							)
						)
					)
					(number "12"
						(effects
							(font
								(size 1.27 1.27)
							)
						)
					)
				)
				(pin bidirectional line
					(at 22.86 -5.08 180)
					(length 5.08)
					(name "GPIO2/RXLED"
						(effects
							(font
								(size 1.27 1.27)
							)
						)
					)
					(number "13"
						(effects
							(font
								(size 1.27 1.27)
							)
						)
					)
				)
				(pin bidirectional line
					(at 22.86 -2.54 180)
					(length 5.08)
					(name "GPIO1/SFDLED"
						(effects
							(font
								(size 1.27 1.27)
							)
						)
					)
					(number "14"
						(effects
							(font
								(size 1.27 1.27)
							)
						)
					)
				)
				(pin bidirectional line
					(at 22.86 0 180)
					(length 5.08)
					(name "GPIO0/RXOKLED"
						(effects
							(font
								(size 1.27 1.27)
							)
						)
					)
					(number "15"
						(effects
							(font
								(size 1.27 1.27)
							)
						)
					)
				)
				(pin power_in line
					(at -2.54 -27.94 90)
					(length 5.08)
					(name "VSS"
						(effects
							(font
								(size 1.27 1.27)
							)
						)
					)
					(number "16"
						(effects
							(font
								(size 1.27 1.27)
							)
						)
					)
				)
				(pin input line
					(at 22.86 10.16 180)
					(length 5.08)
					(name "SPICSn"
						(effects
							(font
								(size 1.27 1.27)
							)
						)
					)
					(number "17"
						(effects
							(font
								(size 1.27 1.27)
							)
						)
					)
				)
				(pin input line
					(at 22.86 12.7 180)
					(length 5.08)
					(name "SPIMOSI"
						(effects
							(font
								(size 1.27 1.27)
							)
						)
					)
					(number "18"
						(effects
							(font
								(size 1.27 1.27)
							)
						)
					)
				)
				(pin output line
					(at 22.86 15.24 180)
					(length 5.08)
					(name "SPIMISO"
						(effects
							(font
								(size 1.27 1.27)
							)
						)
					)
					(number "19"
						(effects
							(font
								(size 1.27 1.27)
							)
						)
					)
				)
				(pin bidirectional line
					(at -22.86 2.54 0)
					(length 5.08)
					(name "WAKEUP"
						(effects
							(font
								(size 1.27 1.27)
							)
						)
					)
					(number "2"
						(effects
							(font
								(size 1.27 1.27)
							)
						)
					)
				)
				(pin input line
					(at 22.86 17.78 180)
					(length 5.08)
					(name "SPICLK"
						(effects
							(font
								(size 1.27 1.27)
							)
						)
					)
					(number "20"
						(effects
							(font
								(size 1.27 1.27)
							)
						)
					)
				)
				(pin power_in line
					(at 0 -27.94 90)
					(length 5.08)
					(name "VSS"
						(effects
							(font
								(size 1.27 1.27)
							)
						)
					)
					(number "21"
						(effects
							(font
								(size 1.27 1.27)
							)
						)
					)
				)
				(pin bidirectional line
					(at 22.86 20.32 180)
					(length 5.08)
					(name "IRQ/GPIO8"
						(effects
							(font
								(size 1.27 1.27)
							)
						)
					)
					(number "22"
						(effects
							(font
								(size 1.27 1.27)
							)
						)
					)
				)
				(pin power_in line
					(at 2.54 -27.94 90)
					(length 5.08)
					(name "VSS"
						(effects
							(font
								(size 1.27 1.27)
							)
						)
					)
					(number "23"
						(effects
							(font
								(size 1.27 1.27)
							)
						)
					)
				)
				(pin power_in line
					(at 5.08 -27.94 90)
					(length 5.08)
					(name "VSS"
						(effects
							(font
								(size 1.27 1.27)
							)
						)
					)
					(number "24"
						(effects
							(font
								(size 1.27 1.27)
							)
						)
					)
				)
				(pin bidirectional line
					(at -22.86 0 0)
					(length 5.08)
					(name "RSTn"
						(effects
							(font
								(size 1.27 1.27)
							)
						)
					)
					(number "3"
						(effects
							(font
								(size 1.27 1.27)
							)
						)
					)
				)
				(pin bidirectional line
					(at -22.86 -2.54 0)
					(length 5.08)
					(name "GPIO7"
						(effects
							(font
								(size 1.27 1.27)
							)
						)
					)
					(number "4"
						(effects
							(font
								(size 1.27 1.27)
							)
						)
					)
				)
				(pin power_in line
					(at 2.54 27.94 270)
					(length 5.08)
					(name "VDDAON"
						(effects
							(font
								(size 1.27 1.27)
							)
						)
					)
					(number "5"
						(effects
							(font
								(size 1.27 1.27)
							)
						)
					)
				)
				(pin power_in line
					(at 0 27.94 270)
					(length 5.08)
					(name "VDD3V3"
						(effects
							(font
								(size 1.27 1.27)
							)
						)
					)
					(number "6"
						(effects
							(font
								(size 1.27 1.27)
							)
						)
					)
				)
				(pin power_in line
					(at -2.54 27.94 270)
					(length 5.08)
					(name "VDD3V3"
						(effects
							(font
								(size 1.27 1.27)
							)
						)
					)
					(number "7"
						(effects
							(font
								(size 1.27 1.27)
							)
						)
					)
				)
				(pin power_in line
					(at -5.08 -27.94 90)
					(length 5.08)
					(name "VSS"
						(effects
							(font
								(size 1.27 1.27)
							)
						)
					)
					(number "8"
						(effects
							(font
								(size 1.27 1.27)
							)
						)
					)
				)
				(pin bidirectional line
					(at 22.86 -15.24 180)
					(length 5.08)
					(name "GPIO6/EXTRXE/SPIHA"
						(effects
							(font
								(size 1.27 1.27)
							)
						)
					)
					(number "9"
						(effects
							(font
								(size 1.27 1.27)
							)
						)
					)
				)
			)
		)
		(symbol "power:+3V3"
			(power)
			(pin_names
				(offset 0)
			)
			(exclude_from_sim no)
			(in_bom yes)
			(on_board yes)
			(property "Reference" "#PWR"
				(at 0 -3.81 0)
				(effects
					(font
						(size 1.27 1.27)
					)
					(hide yes)
				)
			)
			(property "Value" "+3V3"
				(at 0 3.556 0)
				(effects
					(font
						(size 1.27 1.27)
					)
				)
			)
			(property "Footprint" ""
				(at 0 0 0)
				(effects
					(font
						(size 1.27 1.27)
					)
					(hide yes)
				)
			)
			(property "Datasheet" ""
				(at 0 0 0)
				(effects
					(font
						(size 1.27 1.27)
					)
					(hide yes)
				)
			)
			(property "Description" "Power symbol creates a global label with name \"+3V3\""
				(at 0 0 0)
				(effects
					(font
						(size 1.27 1.27)
					)
					(hide yes)
				)
			)
			(property "ki_keywords" "global power"
				(at 0 0 0)
				(effects
					(font
						(size 1.27 1.27)
					)
					(hide yes)
				)
			)
			(symbol "+3V3_0_1"
				(polyline
					(pts
						(xy -0.762 1.27) (xy 0 2.54)
					)
					(stroke
						(width 0)
						(type default)
					)
					(fill
						(type none)
					)
				)
				(polyline
					(pts
						(xy 0 0) (xy 0 2.54)
					)
					(stroke
						(width 0)
						(type default)
					)
					(fill
						(type none)
					)
				)
				(polyline
					(pts
						(xy 0 2.54) (xy 0.762 1.27)
					)
					(stroke
						(width 0)
						(type default)
					)
					(fill
						(type none)
					)
				)
			)
			(symbol "+3V3_1_1"
				(pin power_in line
					(at 0 0 90)
					(length 0) hide
					(name "+3V3"
						(effects
							(font
								(size 1.27 1.27)
							)
						)
					)
					(number "1"
						(effects
							(font
								(size 1.27 1.27)
							)
						)
					)
				)
			)
		)
		(symbol "power:GND"
			(power)
			(pin_names
				(offset 0)
			)
			(exclude_from_sim no)
			(in_bom yes)
			(on_board yes)
			(property "Reference" "#PWR"
				(at 0 -6.35 0)
				(effects
					(font
						(size 1.27 1.27)
					)
					(hide yes)
				)
			)
			(property "Value" "GND"
				(at 0 -3.81 0)
				(effects
					(font
						(size 1.27 1.27)
					)
				)
			)
			(property "Footprint" ""
				(at 0 0 0)
				(effects
					(font
						(size 1.27 1.27)
					)
					(hide yes)
				)
			)
			(property "Datasheet" ""
				(at 0 0 0)
				(effects
					(font
						(size 1.27 1.27)
					)
					(hide yes)
				)
			)
			(property "Description" "Power symbol creates a global label with name \"GND\" , ground"
				(at 0 0 0)
				(effects
					(font
						(size 1.27 1.27)
					)
					(hide yes)
				)
			)
			(property "ki_keywords" "global power"
				(at 0 0 0)
				(effects
					(font
						(size 1.27 1.27)
					)
					(hide yes)
				)
			)
			(symbol "GND_0_1"
				(polyline
					(pts
						(xy 0 0) (xy 0 -1.27) (xy 1.27 -1.27) (xy 0 -2.54) (xy -1.27 -1.27) (xy 0 -1.27)
					)
					(stroke
						(width 0)
						(type default)
					)
					(fill
						(type none)
					)
				)
			)
			(symbol "GND_1_1"
				(pin power_in line
					(at 0 0 270)
					(length 0) hide
					(name "GND"
						(effects
							(font
								(size 1.27 1.27)
							)
						)
					)
					(number "1"
						(effects
							(font
								(size 1.27 1.27)
							)
						)
					)
				)
			)
		)
	)
	(junction
		(at 181.61 133.35)
		(diameter 0)
		(color 0 0 0 0)
		(uuid "1a1d2fee-4d94-4ed0-b0f9-d55e3fa5ecd2")
	)
	(junction
		(at 194.31 78.74)
		(diameter 0)
		(color 0 0 0 0)
		(uuid "1d6d8b05-d85e-4e1e-a7ac-06c7c2d52943")
	)
	(junction
		(at 194.31 66.04)
		(diameter 0)
		(color 0 0 0 0)
		(uuid "21b60fef-dd16-4571-866e-696417619b83")
	)
	(junction
		(at 128.27 133.35)
		(diameter 0)
		(color 0 0 0 0)
		(uuid "3f10691e-22f1-448c-827f-39acfc5c54f6")
	)
	(junction
		(at 125.73 133.35)
		(diameter 0)
		(color 0 0 0 0)
		(uuid "4d80142b-743b-4933-9bcf-b1725545b6b7")
	)
	(junction
		(at 125.73 72.39)
		(diameter 0)
		(color 0 0 0 0)
		(uuid "9456c999-c67d-44b9-9177-fb2bf137c1ee")
	)
	(junction
		(at 176.53 133.35)
		(diameter 0)
		(color 0 0 0 0)
		(uuid "9858e495-4844-4a60-9685-593342676f85")
	)
	(junction
		(at 123.19 133.35)
		(diameter 0)
		(color 0 0 0 0)
		(uuid "bcb5b613-8aa6-4c72-8997-eaefceb6201b")
	)
	(junction
		(at 171.45 133.35)
		(diameter 0)
		(color 0 0 0 0)
		(uuid "f529f9ff-96dc-482d-9c36-7d558df633f0")
	)
	(no_connect
		(at 148.59 118.11)
		(uuid "2d55899d-a213-4021-9be5-e3429e6144cb")
	)
	(no_connect
		(at 148.59 115.57)
		(uuid "9ecebfa7-260f-45bd-b75b-8a573032f4a2")
	)
	(no_connect
		(at 148.59 113.03)
		(uuid "cb38e8d3-cc9e-42ae-acd4-3f59af512eed")
	)
	(no_connect
		(at 102.87 105.41)
		(uuid "e7c3dfe7-a451-4702-86dc-79fe209ba2f7")
	)
	(wire
		(pts
			(xy 96.52 102.87) (xy 102.87 102.87)
		)
		(stroke
			(width 0)
			(type default)
		)
		(uuid "012a95bf-7546-4f6e-acec-92c8eebd7419")
	)
	(wire
		(pts
			(xy 128.27 72.39) (xy 125.73 72.39)
		)
		(stroke
			(width 0)
			(type default)
		)
		(uuid "05cc5ce8-c699-43ae-ad45-820e0577e334")
	)
	(wire
		(pts
			(xy 123.19 72.39) (xy 123.19 74.93)
		)
		(stroke
			(width 0)
			(type default)
		)
		(uuid "0710f810-00fa-4717-bee5-9ab119e7f929")
	)
	(wire
		(pts
			(xy 93.98 100.33) (xy 102.87 100.33)
		)
		(stroke
			(width 0)
			(type default)
		)
		(uuid "08c6a865-1232-48e4-8e43-798350693dc3")
	)
	(wire
		(pts
			(xy 125.73 69.85) (xy 125.73 72.39)
		)
		(stroke
			(width 0)
			(type default)
		)
		(uuid "097beab6-fa82-416d-834a-3bde3fddfb60")
	)
	(wire
		(pts
			(xy 148.59 85.09) (xy 163.83 85.09)
		)
		(stroke
			(width 0)
			(type default)
		)
		(uuid "0ccfcb0a-fe9a-4bd6-813e-8ed39adc1882")
	)
	(wire
		(pts
			(xy 96.52 106.68) (xy 96.52 102.87)
		)
		(stroke
			(width 0)
			(type default)
		)
		(uuid "0fdee1af-8385-4e72-968e-6de918dc3abf")
	)
	(wire
		(pts
			(xy 161.29 133.35) (xy 171.45 133.35)
		)
		(stroke
			(width 0)
			(type default)
		)
		(uuid "13ee01ce-8e0b-44af-9c83-27cd2636b109")
	)
	(wire
		(pts
			(xy 194.31 66.04) (xy 200.66 66.04)
		)
		(stroke
			(width 0)
			(type default)
		)
		(uuid "1b0902da-7b71-4a27-a8d8-177fee1ae32f")
	)
	(wire
		(pts
			(xy 171.45 133.35) (xy 176.53 133.35)
		)
		(stroke
			(width 0)
			(type default)
		)
		(uuid "1fef47c1-4d64-4abc-8fe3-b9592c7976e3")
	)
	(wire
		(pts
			(xy 218.44 91.44) (xy 218.44 97.79)
		)
		(stroke
			(width 0)
			(type default)
		)
		(uuid "2422d611-ddac-4ceb-967a-779c583c2d54")
	)
	(wire
		(pts
			(xy 82.55 93.98) (xy 86.36 93.98)
		)
		(stroke
			(width 0)
			(type default)
		)
		(uuid "24d07098-01be-4462-a600-30f73b508745")
	)
	(wire
		(pts
			(xy 120.65 130.81) (xy 120.65 133.35)
		)
		(stroke
			(width 0)
			(type default)
		)
		(uuid "285ff492-8075-428d-b063-a6f4df8bc617")
	)
	(wire
		(pts
			(xy 148.59 90.17) (xy 163.83 90.17)
		)
		(stroke
			(width 0)
			(type default)
		)
		(uuid "29c3e509-f2c1-4f31-922c-42892fe492ef")
	)
	(wire
		(pts
			(xy 171.45 113.03) (xy 171.45 107.95)
		)
		(stroke
			(width 0)
			(type default)
		)
		(uuid "2b17433a-16cf-43b3-9034-6fc0eca0b7e4")
	)
	(wire
		(pts
			(xy 187.96 66.04) (xy 187.96 68.58)
		)
		(stroke
			(width 0)
			(type default)
		)
		(uuid "2f6859ee-a6ef-4b85-971b-85ccf93dda6f")
	)
	(wire
		(pts
			(xy 191.77 133.35) (xy 191.77 130.81)
		)
		(stroke
			(width 0)
			(type default)
		)
		(uuid "33cd0f46-de00-48c6-9d21-e63c92cff5c7")
	)
	(wire
		(pts
			(xy 148.59 102.87) (xy 191.77 102.87)
		)
		(stroke
			(width 0)
			(type default)
		)
		(uuid "35fb8bc8-99d7-485f-a3e7-4f26242cda50")
	)
	(wire
		(pts
			(xy 161.29 130.81) (xy 161.29 133.35)
		)
		(stroke
			(width 0)
			(type default)
		)
		(uuid "3677b876-4c9c-4ea9-baf1-0b81d493f274")
	)
	(wire
		(pts
			(xy 200.66 78.74) (xy 200.66 76.2)
		)
		(stroke
			(width 0)
			(type default)
		)
		(uuid "38b2d0e6-a8dc-4fb4-aeef-f59ab160e1a6")
	)
	(wire
		(pts
			(xy 148.59 82.55) (xy 163.83 82.55)
		)
		(stroke
			(width 0)
			(type default)
		)
		(uuid "40f184b3-7332-4ebb-9a53-9d41cebcf979")
	)
	(wire
		(pts
			(xy 181.61 120.65) (xy 181.61 123.19)
		)
		(stroke
			(width 0)
			(type default)
		)
		(uuid "50b23281-7031-4062-970d-ea9a3ea17f69")
	)
	(wire
		(pts
			(xy 123.19 130.81) (xy 123.19 133.35)
		)
		(stroke
			(width 0)
			(type default)
		)
		(uuid "515fd54c-79a5-4d4f-8159-00830cd00872")
	)
	(wire
		(pts
			(xy 82.55 106.68) (xy 86.36 106.68)
		)
		(stroke
			(width 0)
			(type default)
		)
		(uuid "51f9221a-9e0c-4b7e-a79b-17315eebf36b")
	)
	(wire
		(pts
			(xy 148.59 110.49) (xy 161.29 110.49)
		)
		(stroke
			(width 0)
			(type default)
		)
		(uuid "55eadc9e-82eb-44a8-b822-ef475649477c")
	)
	(wire
		(pts
			(xy 128.27 133.35) (xy 130.81 133.35)
		)
		(stroke
			(width 0)
			(type default)
		)
		(uuid "58f0fe80-2693-49bf-8d0b-ed50d33499e8")
	)
	(wire
		(pts
			(xy 123.19 133.35) (xy 125.73 133.35)
		)
		(stroke
			(width 0)
			(type default)
		)
		(uuid "5ebc57d9-fcd7-45fc-8063-41f1507ce6e3")
	)
	(wire
		(pts
			(xy 181.61 133.35) (xy 191.77 133.35)
		)
		(stroke
			(width 0)
			(type default)
		)
		(uuid "60c75594-e77d-461d-ac6e-1b804d20d900")
	)
	(wire
		(pts
			(xy 130.81 130.81) (xy 130.81 133.35)
		)
		(stroke
			(width 0)
			(type default)
		)
		(uuid "638fbcb3-43fb-42ad-95b2-a54549ae2ba3")
	)
	(wire
		(pts
			(xy 194.31 66.04) (xy 187.96 66.04)
		)
		(stroke
			(width 0)
			(type default)
		)
		(uuid "6cc312d2-ce45-4f11-a6b0-113e0ea01f87")
	)
	(wire
		(pts
			(xy 194.31 63.5) (xy 194.31 66.04)
		)
		(stroke
			(width 0)
			(type default)
		)
		(uuid "6e063e46-231b-4e15-bb78-7df53e7d35cd")
	)
	(wire
		(pts
			(xy 200.66 66.04) (xy 200.66 68.58)
		)
		(stroke
			(width 0)
			(type default)
		)
		(uuid "77164794-4849-42a1-95c3-981f932e8607")
	)
	(wire
		(pts
			(xy 176.53 133.35) (xy 181.61 133.35)
		)
		(stroke
			(width 0)
			(type default)
		)
		(uuid "7906d970-6fe6-41e2-a44b-691431e9d395")
	)
	(wire
		(pts
			(xy 148.59 92.71) (xy 163.83 92.71)
		)
		(stroke
			(width 0)
			(type default)
		)
		(uuid "7b889f35-6f6c-4d6e-8723-df3e13fd7c28")
	)
	(wire
		(pts
			(xy 181.61 105.41) (xy 181.61 113.03)
		)
		(stroke
			(width 0)
			(type default)
		)
		(uuid "7e8f07ff-f804-4b27-8a5b-d636ea8d0b65")
	)
	(wire
		(pts
			(xy 194.31 78.74) (xy 200.66 78.74)
		)
		(stroke
			(width 0)
			(type default)
		)
		(uuid "7ed65221-30fe-47da-8b22-56f487a0085b")
	)
	(wire
		(pts
			(xy 125.73 133.35) (xy 128.27 133.35)
		)
		(stroke
			(width 0)
			(type default)
		)
		(uuid "81f07633-5d70-408d-ab1c-57f9f2044e15")
	)
	(wire
		(pts
			(xy 218.44 105.41) (xy 218.44 110.49)
		)
		(stroke
			(width 0)
			(type default)
		)
		(uuid "8376422c-b282-42d8-ab8b-3bab5d58a7a4")
	)
	(wire
		(pts
			(xy 187.96 78.74) (xy 194.31 78.74)
		)
		(stroke
			(width 0)
			(type default)
		)
		(uuid "83ecd9c6-c1e2-47e6-8b04-23c7768665ad")
	)
	(wire
		(pts
			(xy 181.61 130.81) (xy 181.61 133.35)
		)
		(stroke
			(width 0)
			(type default)
		)
		(uuid "846272ab-9d88-4afc-8b63-9dc51c3437ac")
	)
	(wire
		(pts
			(xy 191.77 102.87) (xy 191.77 113.03)
		)
		(stroke
			(width 0)
			(type default)
		)
		(uuid "860211ca-2ed7-478f-9280-0aba188b8e83")
	)
	(wire
		(pts
			(xy 96.52 93.98) (xy 96.52 97.79)
		)
		(stroke
			(width 0)
			(type default)
		)
		(uuid "870d4a38-ecf1-45a8-af62-a1602992c07e")
	)
	(wire
		(pts
			(xy 125.73 72.39) (xy 123.19 72.39)
		)
		(stroke
			(width 0)
			(type default)
		)
		(uuid "8814a0b8-5d4e-4449-8f64-d0280a1a4ef2")
	)
	(wire
		(pts
			(xy 148.59 105.41) (xy 181.61 105.41)
		)
		(stroke
			(width 0)
			(type default)
		)
		(uuid "89292658-d71c-40a7-8b40-ffcc3cfbb2a5")
	)
	(wire
		(pts
			(xy 120.65 133.35) (xy 123.19 133.35)
		)
		(stroke
			(width 0)
			(type default)
		)
		(uuid "8e1e40d0-059e-453f-aa21-0ec86e002b59")
	)
	(wire
		(pts
			(xy 176.53 133.35) (xy 176.53 135.89)
		)
		(stroke
			(width 0)
			(type default)
		)
		(uuid "91d714fc-c15d-49d6-8a79-afb9ff7d02a1")
	)
	(wire
		(pts
			(xy 194.31 78.74) (xy 194.31 80.01)
		)
		(stroke
			(width 0)
			(type default)
		)
		(uuid "9679adef-91c4-4462-af13-7a8def860925")
	)
	(wire
		(pts
			(xy 93.98 93.98) (xy 96.52 93.98)
		)
		(stroke
			(width 0)
			(type default)
		)
		(uuid "9a06eb0d-6a74-42e2-9018-30d96ce5daa1")
	)
	(wire
		(pts
			(xy 82.55 100.33) (xy 86.36 100.33)
		)
		(stroke
			(width 0)
			(type default)
		)
		(uuid "9ff2ecfd-c8f7-4ed8-ba8e-bcb545381423")
	)
	(wire
		(pts
			(xy 128.27 130.81) (xy 128.27 133.35)
		)
		(stroke
			(width 0)
			(type default)
		)
		(uuid "a76e6e1b-0846-4d55-8087-9c5234a3d511")
	)
	(wire
		(pts
			(xy 125.73 130.81) (xy 125.73 133.35)
		)
		(stroke
			(width 0)
			(type default)
		)
		(uuid "b45631b3-8cf5-4e98-bcdd-e74175a483c1")
	)
	(wire
		(pts
			(xy 96.52 97.79) (xy 102.87 97.79)
		)
		(stroke
			(width 0)
			(type default)
		)
		(uuid "c171b972-dfd8-448a-bb82-b231cf6ef5ec")
	)
	(wire
		(pts
			(xy 171.45 120.65) (xy 171.45 123.19)
		)
		(stroke
			(width 0)
			(type default)
		)
		(uuid "c277e365-8ea2-42a8-a095-8e6d75feccb8")
	)
	(wire
		(pts
			(xy 125.73 74.93) (xy 125.73 72.39)
		)
		(stroke
			(width 0)
			(type default)
		)
		(uuid "c7a12c55-884e-4729-85b9-4c1b6747f0ee")
	)
	(wire
		(pts
			(xy 125.73 133.35) (xy 125.73 137.16)
		)
		(stroke
			(width 0)
			(type default)
		)
		(uuid "cbc03289-c440-40fc-90c4-7642d99998b3")
	)
	(wire
		(pts
			(xy 148.59 87.63) (xy 163.83 87.63)
		)
		(stroke
			(width 0)
			(type default)
		)
		(uuid "cf5688a7-11b7-4e2b-8e9e-96d3f3b5cc48")
	)
	(wire
		(pts
			(xy 171.45 130.81) (xy 171.45 133.35)
		)
		(stroke
			(width 0)
			(type default)
		)
		(uuid "db5d9db6-8572-4bea-acdb-c999e1aa257b")
	)
	(wire
		(pts
			(xy 161.29 110.49) (xy 161.29 113.03)
		)
		(stroke
			(width 0)
			(type default)
		)
		(uuid "ded57e9a-a139-4693-9b9d-935ad4035943")
	)
	(wire
		(pts
			(xy 171.45 107.95) (xy 148.59 107.95)
		)
		(stroke
			(width 0)
			(type default)
		)
		(uuid "e4a38bab-ccb5-46fa-81d2-feea665231c1")
	)
	(wire
		(pts
			(xy 161.29 120.65) (xy 161.29 123.19)
		)
		(stroke
			(width 0)
			(type default)
		)
		(uuid "e8caa9e2-52ca-4e55-8f6c-aeca102e0165")
	)
	(wire
		(pts
			(xy 187.96 76.2) (xy 187.96 78.74)
		)
		(stroke
			(width 0)
			(type default)
		)
		(uuid "ec816eb1-ef3d-4fa0-89cc-219549789ed6")
	)
	(wire
		(pts
			(xy 191.77 120.65) (xy 191.77 123.19)
		)
		(stroke
			(width 0)
			(type default)
		)
		(uuid "edf6b3f0-3298-4ae4-ba5e-ad8da6e2f555")
	)
	(wire
		(pts
			(xy 93.98 106.68) (xy 96.52 106.68)
		)
		(stroke
			(width 0)
			(type default)
		)
		(uuid "fbdc1bce-0fe4-4ead-8728-c3491b7ad9a9")
	)
	(wire
		(pts
			(xy 128.27 74.93) (xy 128.27 72.39)
		)
		(stroke
			(width 0)
			(type default)
		)
		(uuid "fdd1db55-1767-453f-8733-a0aa033c1f7a")
	)
	(label "IRQ"
		(at 218.44 91.44 180)
		(fields_autoplaced yes)
		(effects
			(font
				(size 1.27 1.27)
			)
			(justify right bottom)
		)
		(uuid "b840db64-7e5e-49f6-b7b4-1aaa560afd17")
	)
	(hierarchical_label "~{RST}"
		(shape input)
		(at 82.55 106.68 180)
		(fields_autoplaced yes)
		(effects
			(font
				(size 1.27 1.27)
			)
			(justify right)
		)
		(uuid "213eb52d-f7b7-41cb-a93d-501183c93c71")
	)
	(hierarchical_label "~{CS}"
		(shape input)
		(at 163.83 92.71 0)
		(fields_autoplaced yes)
		(effects
			(font
				(size 1.27 1.27)
			)
			(justify left)
		)
		(uuid "5f2e4b5c-b99f-4f2d-ac10-e2bb70a855a4")
	)
	(hierarchical_label "WAKEUP"
		(shape input)
		(at 82.55 100.33 180)
		(fields_autoplaced yes)
		(effects
			(font
				(size 1.27 1.27)
			)
			(justify right)
		)
		(uuid "8a96f140-4f1d-46cf-986d-ced115df0af9")
	)
	(hierarchical_label "MOSI"
		(shape input)
		(at 163.83 90.17 0)
		(fields_autoplaced yes)
		(effects
			(font
				(size 1.27 1.27)
			)
			(justify left)
		)
		(uuid "a0ea3875-fce2-4ad5-b76d-7d6c6717dab0")
	)
	(hierarchical_label "IRQ"
		(shape input)
		(at 163.83 82.55 0)
		(fields_autoplaced yes)
		(effects
			(font
				(size 1.27 1.27)
			)
			(justify left)
		)
		(uuid "c9e110d4-848f-44d1-afc3-523f706c3194")
	)
	(hierarchical_label "MISO"
		(shape input)
		(at 163.83 87.63 0)
		(fields_autoplaced yes)
		(effects
			(font
				(size 1.27 1.27)
			)
			(justify left)
		)
		(uuid "cd4d9283-86cd-4ee2-a137-10d350bb4638")
	)
	(hierarchical_label "EXTON"
		(shape input)
		(at 82.55 93.98 180)
		(fields_autoplaced yes)
		(effects
			(font
				(size 1.27 1.27)
			)
			(justify right)
		)
		(uuid "ed43abcd-7974-41c1-a6aa-a6688f8c1313")
	)
	(hierarchical_label "SCK"
		(shape input)
		(at 163.83 85.09 0)
		(fields_autoplaced yes)
		(effects
			(font
				(size 1.27 1.27)
			)
			(justify left)
		)
		(uuid "fadbc72a-1ec1-4627-b7c9-48d170874b58")
	)
	(symbol
		(lib_id "Device:R")
		(at 218.44 101.6 0)
		(unit 1)
		(exclude_from_sim no)
		(in_bom yes)
		(on_board yes)
		(dnp no)
		(fields_autoplaced yes)
		(uuid "05d5c819-ff7e-4343-a749-90046d2ae85d")
		(property "Reference" "R18"
			(at 220.98 100.33 0)
			(effects
				(font
					(size 1.27 1.27)
				)
				(justify left)
			)
		)
		(property "Value" "10k"
			(at 220.98 102.87 0)
			(effects
				(font
					(size 1.27 1.27)
				)
				(justify left)
			)
		)
		(property "Footprint" ""
			(at 216.662 101.6 90)
			(effects
				(font
					(size 1.27 1.27)
				)
				(hide yes)
			)
		)
		(property "Datasheet" "~"
			(at 218.44 101.6 0)
			(effects
				(font
					(size 1.27 1.27)
				)
				(hide yes)
			)
		)
		(property "Description" ""
			(at 218.44 101.6 0)
			(effects
				(font
					(size 1.27 1.27)
				)
				(hide yes)
			)
		)
		(pin "1"
			(uuid "6c8f3c7a-1f37-4fe0-97d3-4d2876f4d465")
		)
		(pin "2"
			(uuid "a9e2e8db-7f4e-41fa-aa8f-4c72c1e22946")
		)
		(instances
			(project "BAdBoard"
				(path "/84ea24f9-c3a7-42ae-8166-99239c87be60/ab67ffbd-601f-444c-8f0e-59e4232999cc"
					(reference "R18")
					(unit 1)
				)
			)
		)
	)
	(symbol
		(lib_id "power:GND")
		(at 218.44 110.49 0)
		(unit 1)
		(exclude_from_sim no)
		(in_bom yes)
		(on_board yes)
		(dnp no)
		(fields_autoplaced yes)
		(uuid "16740766-edce-4c01-a17b-f801d7395ea6")
		(property "Reference" "#PWR033"
			(at 218.44 116.84 0)
			(effects
				(font
					(size 1.27 1.27)
				)
				(hide yes)
			)
		)
		(property "Value" "GND"
			(at 218.44 115.57 0)
			(effects
				(font
					(size 1.27 1.27)
				)
			)
		)
		(property "Footprint" ""
			(at 218.44 110.49 0)
			(effects
				(font
					(size 1.27 1.27)
				)
				(hide yes)
			)
		)
		(property "Datasheet" ""
			(at 218.44 110.49 0)
			(effects
				(font
					(size 1.27 1.27)
				)
				(hide yes)
			)
		)
		(property "Description" ""
			(at 218.44 110.49 0)
			(effects
				(font
					(size 1.27 1.27)
				)
				(hide yes)
			)
		)
		(pin "1"
			(uuid "ac0a8d25-0592-42b9-b082-48a99fb92882")
		)
		(instances
			(project "BAdBoard"
				(path "/84ea24f9-c3a7-42ae-8166-99239c87be60/ab67ffbd-601f-444c-8f0e-59e4232999cc"
					(reference "#PWR033")
					(unit 1)
				)
			)
		)
	)
	(symbol
		(lib_id "Device:R")
		(at 171.45 116.84 0)
		(unit 1)
		(exclude_from_sim no)
		(in_bom yes)
		(on_board yes)
		(dnp no)
		(fields_autoplaced yes)
		(uuid "1d3eee7d-db82-48ab-898b-43e4d29cadfc")
		(property "Reference" "R20"
			(at 173.99 115.57 0)
			(effects
				(font
					(size 1.27 1.27)
				)
				(justify left)
			)
		)
		(property "Value" "470"
			(at 173.99 118.11 0)
			(effects
				(font
					(size 1.27 1.27)
				)
				(justify left)
			)
		)
		(property "Footprint" ""
			(at 169.672 116.84 90)
			(effects
				(font
					(size 1.27 1.27)
				)
				(hide yes)
			)
		)
		(property "Datasheet" "~"
			(at 171.45 116.84 0)
			(effects
				(font
					(size 1.27 1.27)
				)
				(hide yes)
			)
		)
		(property "Description" ""
			(at 171.45 116.84 0)
			(effects
				(font
					(size 1.27 1.27)
				)
				(hide yes)
			)
		)
		(pin "1"
			(uuid "3e916a03-b906-48a4-bc06-82f64fba6c19")
		)
		(pin "2"
			(uuid "a6e68c22-b928-4f0e-ba2c-f2c590b70dce")
		)
		(instances
			(project "BAdBoard"
				(path "/84ea24f9-c3a7-42ae-8166-99239c87be60/ab67ffbd-601f-444c-8f0e-59e4232999cc"
					(reference "R20")
					(unit 1)
				)
			)
		)
	)
	(symbol
		(lib_id "Device:R")
		(at 161.29 116.84 0)
		(unit 1)
		(exclude_from_sim no)
		(in_bom yes)
		(on_board yes)
		(dnp no)
		(fields_autoplaced yes)
		(uuid "1d9c20e7-0a2c-4e8c-85db-4102a07f777e")
		(property "Reference" "R19"
			(at 163.83 115.57 0)
			(effects
				(font
					(size 1.27 1.27)
				)
				(justify left)
			)
		)
		(property "Value" "470"
			(at 163.83 118.11 0)
			(effects
				(font
					(size 1.27 1.27)
				)
				(justify left)
			)
		)
		(property "Footprint" ""
			(at 159.512 116.84 90)
			(effects
				(font
					(size 1.27 1.27)
				)
				(hide yes)
			)
		)
		(property "Datasheet" "~"
			(at 161.29 116.84 0)
			(effects
				(font
					(size 1.27 1.27)
				)
				(hide yes)
			)
		)
		(property "Description" ""
			(at 161.29 116.84 0)
			(effects
				(font
					(size 1.27 1.27)
				)
				(hide yes)
			)
		)
		(pin "1"
			(uuid "8e8a75bc-6672-4247-800a-64a9e4f25793")
		)
		(pin "2"
			(uuid "281faf9b-af8b-471c-83ca-093fd339f08e")
		)
		(instances
			(project "BAdBoard"
				(path "/84ea24f9-c3a7-42ae-8166-99239c87be60/ab67ffbd-601f-444c-8f0e-59e4232999cc"
					(reference "R19")
					(unit 1)
				)
			)
		)
	)
	(symbol
		(lib_id "RF_Module:DWM1000")
		(at 125.73 102.87 0)
		(unit 1)
		(exclude_from_sim no)
		(in_bom yes)
		(on_board yes)
		(dnp no)
		(fields_autoplaced yes)
		(uuid "1ef44d88-4c66-48cd-998e-afb5971d21b4")
		(property "Reference" "DWM1"
			(at 130.4641 74.93 0)
			(effects
				(font
					(size 1.27 1.27)
				)
				(justify left)
			)
		)
		(property "Value" "DWM1000"
			(at 130.4641 77.47 0)
			(effects
				(font
					(size 1.27 1.27)
				)
				(justify left)
			)
		)
		(property "Footprint" "RF_Module:DWM1000"
			(at 143.51 128.27 0)
			(effects
				(font
					(size 1.27 1.27)
				)
				(hide yes)
			)
		)
		(property "Datasheet" "https://www.decawave.com/sites/default/files/resources/dwm1000-datasheet-v1.3.pdf"
			(at 186.69 130.81 0)
			(effects
				(font
					(size 1.27 1.27)
				)
				(hide yes)
			)
		)
		(property "Description" ""
			(at 125.73 102.87 0)
			(effects
				(font
					(size 1.27 1.27)
				)
				(hide yes)
			)
		)
		(pin "1"
			(uuid "00a1cbfb-8d5c-4e4f-bc29-9248003b059c")
		)
		(pin "10"
			(uuid "352a63ff-e495-4a6d-b6d2-03705e1cb98a")
		)
		(pin "11"
			(uuid "d80cdb94-b08d-4a53-a762-785042827760")
		)
		(pin "12"
			(uuid "49f74900-0253-4b4c-a7e5-313b6b4ee799")
		)
		(pin "13"
			(uuid "1ae799b1-0454-4551-8628-cd34f5d388bc")
		)
		(pin "14"
			(uuid "ec40fc76-b542-4e58-9896-7964104ca4d2")
		)
		(pin "15"
			(uuid "c594eb0c-b3d8-43eb-aae1-35a177d3bd7d")
		)
		(pin "16"
			(uuid "a4c34155-40fb-45ae-acda-fbe0ad7b38c9")
		)
		(pin "17"
			(uuid "bae3a0ed-5d16-452c-8eb2-ba8d2157253f")
		)
		(pin "18"
			(uuid "b419e012-c615-45c8-864b-08193903aa5c")
		)
		(pin "19"
			(uuid "5e0f102f-c4bf-4eb5-b18f-6051ef8fa23d")
		)
		(pin "2"
			(uuid "6a3ee218-9565-4bc6-bedb-3044c5f90033")
		)
		(pin "20"
			(uuid "8b388f3a-596a-4354-9e72-2b872ae99a91")
		)
		(pin "21"
			(uuid "4b710bbe-3a43-4008-a6b7-99bd21bcbd98")
		)
		(pin "22"
			(uuid "8680a9f3-8772-4902-86db-587f8aff36c8")
		)
		(pin "23"
			(uuid "6b1e4a79-5596-491f-be12-ff8e92d68fc4")
		)
		(pin "24"
			(uuid "5293e0b1-b519-42e2-b938-aa34962db606")
		)
		(pin "3"
			(uuid "affff579-78ff-48cb-8b4e-23417be4a406")
		)
		(pin "4"
			(uuid "0b6c223d-1b40-4a48-a851-a045d513ee8f")
		)
		(pin "5"
			(uuid "75b8f0c8-9c1b-4eb7-ac0d-cab0351a82d0")
		)
		(pin "6"
			(uuid "6743bc11-a4ee-4dc3-811a-55680c7f7587")
		)
		(pin "7"
			(uuid "04621a77-45af-4d97-956f-2980b3f433c9")
		)
		(pin "8"
			(uuid "f7ec9742-066a-482c-afbe-2dd4294ff6ee")
		)
		(pin "9"
			(uuid "b7196f9e-55df-4b9d-b75c-a4274cea1db1")
		)
		(instances
			(project "BAdBoard"
				(path "/84ea24f9-c3a7-42ae-8166-99239c87be60/ab67ffbd-601f-444c-8f0e-59e4232999cc"
					(reference "DWM1")
					(unit 1)
				)
			)
		)
	)
	(symbol
		(lib_id "power:+3V3")
		(at 194.31 63.5 0)
		(unit 1)
		(exclude_from_sim no)
		(in_bom yes)
		(on_board yes)
		(dnp no)
		(fields_autoplaced yes)
		(uuid "5010ce57-8de9-4ce3-8789-b96e4fb43f7d")
		(property "Reference" "#PWR032"
			(at 194.31 67.31 0)
			(effects
				(font
					(size 1.27 1.27)
				)
				(hide yes)
			)
		)
		(property "Value" "+3V3"
			(at 194.31 58.42 0)
			(effects
				(font
					(size 1.27 1.27)
				)
			)
		)
		(property "Footprint" ""
			(at 194.31 63.5 0)
			(effects
				(font
					(size 1.27 1.27)
				)
				(hide yes)
			)
		)
		(property "Datasheet" ""
			(at 194.31 63.5 0)
			(effects
				(font
					(size 1.27 1.27)
				)
				(hide yes)
			)
		)
		(property "Description" ""
			(at 194.31 63.5 0)
			(effects
				(font
					(size 1.27 1.27)
				)
				(hide yes)
			)
		)
		(pin "1"
			(uuid "66bfd050-ab40-43fe-a617-d2135358f460")
		)
		(instances
			(project "BAdBoard"
				(path "/84ea24f9-c3a7-42ae-8166-99239c87be60/ab67ffbd-601f-444c-8f0e-59e4232999cc"
					(reference "#PWR032")
					(unit 1)
				)
			)
		)
	)
	(symbol
		(lib_id "Device:C")
		(at 187.96 72.39 0)
		(unit 1)
		(exclude_from_sim no)
		(in_bom yes)
		(on_board yes)
		(dnp no)
		(fields_autoplaced yes)
		(uuid "532f8fa2-1569-4ae7-a43f-5339b5fcfe30")
		(property "Reference" "C11"
			(at 191.77 71.12 0)
			(effects
				(font
					(size 1.27 1.27)
				)
				(justify left)
			)
		)
		(property "Value" "10u"
			(at 191.77 73.66 0)
			(effects
				(font
					(size 1.27 1.27)
				)
				(justify left)
			)
		)
		(property "Footprint" ""
			(at 188.9252 76.2 0)
			(effects
				(font
					(size 1.27 1.27)
				)
				(hide yes)
			)
		)
		(property "Datasheet" "~"
			(at 187.96 72.39 0)
			(effects
				(font
					(size 1.27 1.27)
				)
				(hide yes)
			)
		)
		(property "Description" ""
			(at 187.96 72.39 0)
			(effects
				(font
					(size 1.27 1.27)
				)
				(hide yes)
			)
		)
		(pin "1"
			(uuid "40a9e074-dace-4378-bd59-1550521b9944")
		)
		(pin "2"
			(uuid "19d1f34a-f4ea-4bbf-842c-c2788b8440f9")
		)
		(instances
			(project "BAdBoard"
				(path "/84ea24f9-c3a7-42ae-8166-99239c87be60/ab67ffbd-601f-444c-8f0e-59e4232999cc"
					(reference "C11")
					(unit 1)
				)
			)
		)
	)
	(symbol
		(lib_id "Device:R")
		(at 90.17 100.33 90)
		(unit 1)
		(exclude_from_sim no)
		(in_bom yes)
		(on_board yes)
		(dnp no)
		(uuid "5537ae65-66ac-4354-bd85-f3dad5e6a3f6")
		(property "Reference" "R25"
			(at 90.17 97.79 90)
			(effects
				(font
					(size 1.27 1.27)
				)
			)
		)
		(property "Value" "470"
			(at 90.17 102.87 90)
			(effects
				(font
					(size 1.27 1.27)
				)
			)
		)
		(property "Footprint" ""
			(at 90.17 102.108 90)
			(effects
				(font
					(size 1.27 1.27)
				)
				(hide yes)
			)
		)
		(property "Datasheet" "~"
			(at 90.17 100.33 0)
			(effects
				(font
					(size 1.27 1.27)
				)
				(hide yes)
			)
		)
		(property "Description" ""
			(at 90.17 100.33 0)
			(effects
				(font
					(size 1.27 1.27)
				)
				(hide yes)
			)
		)
		(pin "1"
			(uuid "726d06c0-77ff-49b1-a078-7798012d4d73")
		)
		(pin "2"
			(uuid "dfdca9bf-d901-42be-a2ab-508abe4da939")
		)
		(instances
			(project "BAdBoard"
				(path "/84ea24f9-c3a7-42ae-8166-99239c87be60/ab67ffbd-601f-444c-8f0e-59e4232999cc"
					(reference "R25")
					(unit 1)
				)
			)
		)
	)
	(symbol
		(lib_id "Device:C")
		(at 200.66 72.39 0)
		(unit 1)
		(exclude_from_sim no)
		(in_bom yes)
		(on_board yes)
		(dnp no)
		(fields_autoplaced yes)
		(uuid "5d7407c2-0246-4e45-bb08-74fee414e18b")
		(property "Reference" "C12"
			(at 204.47 71.12 0)
			(effects
				(font
					(size 1.27 1.27)
				)
				(justify left)
			)
		)
		(property "Value" "0.1u"
			(at 204.47 73.66 0)
			(effects
				(font
					(size 1.27 1.27)
				)
				(justify left)
			)
		)
		(property "Footprint" ""
			(at 201.6252 76.2 0)
			(effects
				(font
					(size 1.27 1.27)
				)
				(hide yes)
			)
		)
		(property "Datasheet" "~"
			(at 200.66 72.39 0)
			(effects
				(font
					(size 1.27 1.27)
				)
				(hide yes)
			)
		)
		(property "Description" ""
			(at 200.66 72.39 0)
			(effects
				(font
					(size 1.27 1.27)
				)
				(hide yes)
			)
		)
		(pin "1"
			(uuid "282a161d-8f91-4edc-8f9e-eb00b99623ff")
		)
		(pin "2"
			(uuid "fa115d1e-6dd4-4184-b05e-788eb015395f")
		)
		(instances
			(project "BAdBoard"
				(path "/84ea24f9-c3a7-42ae-8166-99239c87be60/ab67ffbd-601f-444c-8f0e-59e4232999cc"
					(reference "C12")
					(unit 1)
				)
			)
		)
	)
	(symbol
		(lib_id "power:GND")
		(at 194.31 80.01 0)
		(unit 1)
		(exclude_from_sim no)
		(in_bom yes)
		(on_board yes)
		(dnp no)
		(fields_autoplaced yes)
		(uuid "60298eeb-5639-4a79-b96e-d76b8fb840e1")
		(property "Reference" "#PWR031"
			(at 194.31 86.36 0)
			(effects
				(font
					(size 1.27 1.27)
				)
				(hide yes)
			)
		)
		(property "Value" "GND"
			(at 194.31 85.09 0)
			(effects
				(font
					(size 1.27 1.27)
				)
			)
		)
		(property "Footprint" ""
			(at 194.31 80.01 0)
			(effects
				(font
					(size 1.27 1.27)
				)
				(hide yes)
			)
		)
		(property "Datasheet" ""
			(at 194.31 80.01 0)
			(effects
				(font
					(size 1.27 1.27)
				)
				(hide yes)
			)
		)
		(property "Description" ""
			(at 194.31 80.01 0)
			(effects
				(font
					(size 1.27 1.27)
				)
				(hide yes)
			)
		)
		(pin "1"
			(uuid "8422982f-3901-4816-a97f-1c24e4b9155f")
		)
		(instances
			(project "BAdBoard"
				(path "/84ea24f9-c3a7-42ae-8166-99239c87be60/ab67ffbd-601f-444c-8f0e-59e4232999cc"
					(reference "#PWR031")
					(unit 1)
				)
			)
		)
	)
	(symbol
		(lib_id "Device:R")
		(at 90.17 106.68 90)
		(mirror x)
		(unit 1)
		(exclude_from_sim no)
		(in_bom yes)
		(on_board yes)
		(dnp no)
		(uuid "6c373f33-5e51-4398-a17a-1010a611e4db")
		(property "Reference" "R24"
			(at 90.17 113.03 90)
			(effects
				(font
					(size 1.27 1.27)
				)
			)
		)
		(property "Value" "470"
			(at 90.17 110.49 90)
			(effects
				(font
					(size 1.27 1.27)
				)
			)
		)
		(property "Footprint" ""
			(at 90.17 104.902 90)
			(effects
				(font
					(size 1.27 1.27)
				)
				(hide yes)
			)
		)
		(property "Datasheet" "~"
			(at 90.17 106.68 0)
			(effects
				(font
					(size 1.27 1.27)
				)
				(hide yes)
			)
		)
		(property "Description" ""
			(at 90.17 106.68 0)
			(effects
				(font
					(size 1.27 1.27)
				)
				(hide yes)
			)
		)
		(pin "1"
			(uuid "2de21a85-aed9-41d3-968e-8b701d4d59d4")
		)
		(pin "2"
			(uuid "3259425f-33d7-4136-baf0-72fe0b578e27")
		)
		(instances
			(project "BAdBoard"
				(path "/84ea24f9-c3a7-42ae-8166-99239c87be60/ab67ffbd-601f-444c-8f0e-59e4232999cc"
					(reference "R24")
					(unit 1)
				)
			)
		)
	)
	(symbol
		(lib_id "Device:LED")
		(at 181.61 127 90)
		(unit 1)
		(exclude_from_sim no)
		(in_bom yes)
		(on_board yes)
		(dnp no)
		(fields_autoplaced yes)
		(uuid "79ade8a2-1a4f-417b-9669-ba3b54a87e61")
		(property "Reference" "D3"
			(at 185.42 127.3175 90)
			(effects
				(font
					(size 1.27 1.27)
				)
				(justify right)
			)
		)
		(property "Value" "LED"
			(at 185.42 129.8575 90)
			(effects
				(font
					(size 1.27 1.27)
				)
				(justify right)
			)
		)
		(property "Footprint" ""
			(at 181.61 127 0)
			(effects
				(font
					(size 1.27 1.27)
				)
				(hide yes)
			)
		)
		(property "Datasheet" "~"
			(at 181.61 127 0)
			(effects
				(font
					(size 1.27 1.27)
				)
				(hide yes)
			)
		)
		(property "Description" ""
			(at 181.61 127 0)
			(effects
				(font
					(size 1.27 1.27)
				)
				(hide yes)
			)
		)
		(pin "1"
			(uuid "bc2c7841-dea1-489b-8578-8e63ff432700")
		)
		(pin "2"
			(uuid "18fb11fc-4597-4cc9-bc52-0f5a48b0e224")
		)
		(instances
			(project "BAdBoard"
				(path "/84ea24f9-c3a7-42ae-8166-99239c87be60/ab67ffbd-601f-444c-8f0e-59e4232999cc"
					(reference "D3")
					(unit 1)
				)
			)
		)
	)
	(symbol
		(lib_id "power:+3V3")
		(at 125.73 69.85 0)
		(unit 1)
		(exclude_from_sim no)
		(in_bom yes)
		(on_board yes)
		(dnp no)
		(fields_autoplaced yes)
		(uuid "8ff85b0d-854b-47ad-804f-3bc39acd6a8f")
		(property "Reference" "#PWR014"
			(at 125.73 73.66 0)
			(effects
				(font
					(size 1.27 1.27)
				)
				(hide yes)
			)
		)
		(property "Value" "+3V3"
			(at 125.73 64.77 0)
			(effects
				(font
					(size 1.27 1.27)
				)
			)
		)
		(property "Footprint" ""
			(at 125.73 69.85 0)
			(effects
				(font
					(size 1.27 1.27)
				)
				(hide yes)
			)
		)
		(property "Datasheet" ""
			(at 125.73 69.85 0)
			(effects
				(font
					(size 1.27 1.27)
				)
				(hide yes)
			)
		)
		(property "Description" ""
			(at 125.73 69.85 0)
			(effects
				(font
					(size 1.27 1.27)
				)
				(hide yes)
			)
		)
		(pin "1"
			(uuid "71cbaae7-3c5a-434f-b747-b460d7046916")
		)
		(instances
			(project "BAdBoard"
				(path "/84ea24f9-c3a7-42ae-8166-99239c87be60/ab67ffbd-601f-444c-8f0e-59e4232999cc"
					(reference "#PWR014")
					(unit 1)
				)
			)
		)
	)
	(symbol
		(lib_id "Device:R")
		(at 181.61 116.84 0)
		(unit 1)
		(exclude_from_sim no)
		(in_bom yes)
		(on_board yes)
		(dnp no)
		(fields_autoplaced yes)
		(uuid "955773a7-0647-4a55-84bb-a86f0a73ed8d")
		(property "Reference" "R21"
			(at 184.15 115.57 0)
			(effects
				(font
					(size 1.27 1.27)
				)
				(justify left)
			)
		)
		(property "Value" "470"
			(at 184.15 118.11 0)
			(effects
				(font
					(size 1.27 1.27)
				)
				(justify left)
			)
		)
		(property "Footprint" ""
			(at 179.832 116.84 90)
			(effects
				(font
					(size 1.27 1.27)
				)
				(hide yes)
			)
		)
		(property "Datasheet" "~"
			(at 181.61 116.84 0)
			(effects
				(font
					(size 1.27 1.27)
				)
				(hide yes)
			)
		)
		(property "Description" ""
			(at 181.61 116.84 0)
			(effects
				(font
					(size 1.27 1.27)
				)
				(hide yes)
			)
		)
		(pin "1"
			(uuid "68975671-a2b6-402f-a293-df85768bd154")
		)
		(pin "2"
			(uuid "3557e4c5-207c-4183-84c1-c657ef356699")
		)
		(instances
			(project "BAdBoard"
				(path "/84ea24f9-c3a7-42ae-8166-99239c87be60/ab67ffbd-601f-444c-8f0e-59e4232999cc"
					(reference "R21")
					(unit 1)
				)
			)
		)
	)
	(symbol
		(lib_id "Device:R")
		(at 191.77 116.84 0)
		(unit 1)
		(exclude_from_sim no)
		(in_bom yes)
		(on_board yes)
		(dnp no)
		(fields_autoplaced yes)
		(uuid "9fd453f5-c1bd-4729-9ef1-d958ec7bc70f")
		(property "Reference" "R22"
			(at 194.31 115.57 0)
			(effects
				(font
					(size 1.27 1.27)
				)
				(justify left)
			)
		)
		(property "Value" "470"
			(at 194.31 118.11 0)
			(effects
				(font
					(size 1.27 1.27)
				)
				(justify left)
			)
		)
		(property "Footprint" ""
			(at 189.992 116.84 90)
			(effects
				(font
					(size 1.27 1.27)
				)
				(hide yes)
			)
		)
		(property "Datasheet" "~"
			(at 191.77 116.84 0)
			(effects
				(font
					(size 1.27 1.27)
				)
				(hide yes)
			)
		)
		(property "Description" ""
			(at 191.77 116.84 0)
			(effects
				(font
					(size 1.27 1.27)
				)
				(hide yes)
			)
		)
		(pin "1"
			(uuid "7b3749d2-6f87-4d1f-9669-bfabe1a393e3")
		)
		(pin "2"
			(uuid "744c9080-0e7d-49ef-b5ff-93107fbc1f1e")
		)
		(instances
			(project "BAdBoard"
				(path "/84ea24f9-c3a7-42ae-8166-99239c87be60/ab67ffbd-601f-444c-8f0e-59e4232999cc"
					(reference "R22")
					(unit 1)
				)
			)
		)
	)
	(symbol
		(lib_id "power:GND")
		(at 125.73 137.16 0)
		(unit 1)
		(exclude_from_sim no)
		(in_bom yes)
		(on_board yes)
		(dnp no)
		(fields_autoplaced yes)
		(uuid "a7453281-63d3-4ad1-886f-4e649f00c1c8")
		(property "Reference" "#PWR013"
			(at 125.73 143.51 0)
			(effects
				(font
					(size 1.27 1.27)
				)
				(hide yes)
			)
		)
		(property "Value" "GND"
			(at 125.73 142.24 0)
			(effects
				(font
					(size 1.27 1.27)
				)
			)
		)
		(property "Footprint" ""
			(at 125.73 137.16 0)
			(effects
				(font
					(size 1.27 1.27)
				)
				(hide yes)
			)
		)
		(property "Datasheet" ""
			(at 125.73 137.16 0)
			(effects
				(font
					(size 1.27 1.27)
				)
				(hide yes)
			)
		)
		(property "Description" ""
			(at 125.73 137.16 0)
			(effects
				(font
					(size 1.27 1.27)
				)
				(hide yes)
			)
		)
		(pin "1"
			(uuid "908dedf0-17d7-49eb-bbf8-54f83afd4ff7")
		)
		(instances
			(project "BAdBoard"
				(path "/84ea24f9-c3a7-42ae-8166-99239c87be60/ab67ffbd-601f-444c-8f0e-59e4232999cc"
					(reference "#PWR013")
					(unit 1)
				)
			)
		)
	)
	(symbol
		(lib_id "Device:LED")
		(at 171.45 127 90)
		(unit 1)
		(exclude_from_sim no)
		(in_bom yes)
		(on_board yes)
		(dnp no)
		(fields_autoplaced yes)
		(uuid "b77edb41-b6e4-4919-bb1a-7497e0c23d5a")
		(property "Reference" "D2"
			(at 175.26 127.3175 90)
			(effects
				(font
					(size 1.27 1.27)
				)
				(justify right)
			)
		)
		(property "Value" "LED"
			(at 175.26 129.8575 90)
			(effects
				(font
					(size 1.27 1.27)
				)
				(justify right)
			)
		)
		(property "Footprint" ""
			(at 171.45 127 0)
			(effects
				(font
					(size 1.27 1.27)
				)
				(hide yes)
			)
		)
		(property "Datasheet" "~"
			(at 171.45 127 0)
			(effects
				(font
					(size 1.27 1.27)
				)
				(hide yes)
			)
		)
		(property "Description" ""
			(at 171.45 127 0)
			(effects
				(font
					(size 1.27 1.27)
				)
				(hide yes)
			)
		)
		(pin "1"
			(uuid "201bc262-74f7-4389-875c-9c4c4e32b713")
		)
		(pin "2"
			(uuid "e01ca9af-e7b9-4622-b3c1-a6bc3b4f0b02")
		)
		(instances
			(project "BAdBoard"
				(path "/84ea24f9-c3a7-42ae-8166-99239c87be60/ab67ffbd-601f-444c-8f0e-59e4232999cc"
					(reference "D2")
					(unit 1)
				)
			)
		)
	)
	(symbol
		(lib_id "Device:LED")
		(at 191.77 127 90)
		(unit 1)
		(exclude_from_sim no)
		(in_bom yes)
		(on_board yes)
		(dnp no)
		(fields_autoplaced yes)
		(uuid "b844c657-dcaf-4d8e-99bc-9c2db73e3567")
		(property "Reference" "D4"
			(at 195.58 127.3175 90)
			(effects
				(font
					(size 1.27 1.27)
				)
				(justify right)
			)
		)
		(property "Value" "LED"
			(at 195.58 129.8575 90)
			(effects
				(font
					(size 1.27 1.27)
				)
				(justify right)
			)
		)
		(property "Footprint" ""
			(at 191.77 127 0)
			(effects
				(font
					(size 1.27 1.27)
				)
				(hide yes)
			)
		)
		(property "Datasheet" "~"
			(at 191.77 127 0)
			(effects
				(font
					(size 1.27 1.27)
				)
				(hide yes)
			)
		)
		(property "Description" ""
			(at 191.77 127 0)
			(effects
				(font
					(size 1.27 1.27)
				)
				(hide yes)
			)
		)
		(pin "1"
			(uuid "c4688b79-dfda-4c35-8036-507b6f965c73")
		)
		(pin "2"
			(uuid "0c524728-ae54-480e-bc44-68829e169880")
		)
		(instances
			(project "BAdBoard"
				(path "/84ea24f9-c3a7-42ae-8166-99239c87be60/ab67ffbd-601f-444c-8f0e-59e4232999cc"
					(reference "D4")
					(unit 1)
				)
			)
		)
	)
	(symbol
		(lib_id "Device:R")
		(at 90.17 93.98 90)
		(unit 1)
		(exclude_from_sim no)
		(in_bom yes)
		(on_board yes)
		(dnp no)
		(fields_autoplaced yes)
		(uuid "bc6dbc7a-3a3d-4c3d-b031-ae2f1fa3ddde")
		(property "Reference" "R23"
			(at 90.17 87.63 90)
			(effects
				(font
					(size 1.27 1.27)
				)
			)
		)
		(property "Value" "470"
			(at 90.17 90.17 90)
			(effects
				(font
					(size 1.27 1.27)
				)
			)
		)
		(property "Footprint" ""
			(at 90.17 95.758 90)
			(effects
				(font
					(size 1.27 1.27)
				)
				(hide yes)
			)
		)
		(property "Datasheet" "~"
			(at 90.17 93.98 0)
			(effects
				(font
					(size 1.27 1.27)
				)
				(hide yes)
			)
		)
		(property "Description" ""
			(at 90.17 93.98 0)
			(effects
				(font
					(size 1.27 1.27)
				)
				(hide yes)
			)
		)
		(pin "1"
			(uuid "0088794e-3b10-4b23-adb0-95b71bc3b7f8")
		)
		(pin "2"
			(uuid "892b677f-b838-4377-ace5-20ff62ff18b0")
		)
		(instances
			(project "BAdBoard"
				(path "/84ea24f9-c3a7-42ae-8166-99239c87be60/ab67ffbd-601f-444c-8f0e-59e4232999cc"
					(reference "R23")
					(unit 1)
				)
			)
		)
	)
	(symbol
		(lib_id "Device:LED")
		(at 161.29 127 90)
		(unit 1)
		(exclude_from_sim no)
		(in_bom yes)
		(on_board yes)
		(dnp no)
		(fields_autoplaced yes)
		(uuid "f50e2cf1-3af1-4713-ba2b-8de79545a318")
		(property "Reference" "D1"
			(at 165.1 127.3175 90)
			(effects
				(font
					(size 1.27 1.27)
				)
				(justify right)
			)
		)
		(property "Value" "LED"
			(at 165.1 129.8575 90)
			(effects
				(font
					(size 1.27 1.27)
				)
				(justify right)
			)
		)
		(property "Footprint" ""
			(at 161.29 127 0)
			(effects
				(font
					(size 1.27 1.27)
				)
				(hide yes)
			)
		)
		(property "Datasheet" "~"
			(at 161.29 127 0)
			(effects
				(font
					(size 1.27 1.27)
				)
				(hide yes)
			)
		)
		(property "Description" ""
			(at 161.29 127 0)
			(effects
				(font
					(size 1.27 1.27)
				)
				(hide yes)
			)
		)
		(pin "1"
			(uuid "8e40fff2-4162-4da4-a212-944f2b6ea28f")
		)
		(pin "2"
			(uuid "2e659cc8-7caf-4784-9322-3e56c941f86a")
		)
		(instances
			(project "BAdBoard"
				(path "/84ea24f9-c3a7-42ae-8166-99239c87be60/ab67ffbd-601f-444c-8f0e-59e4232999cc"
					(reference "D1")
					(unit 1)
				)
			)
		)
	)
	(symbol
		(lib_id "power:GND")
		(at 176.53 135.89 0)
		(unit 1)
		(exclude_from_sim no)
		(in_bom yes)
		(on_board yes)
		(dnp no)
		(fields_autoplaced yes)
		(uuid "f9807ea8-0e22-475b-8b27-9ddae9a39721")
		(property "Reference" "#PWR034"
			(at 176.53 142.24 0)
			(effects
				(font
					(size 1.27 1.27)
				)
				(hide yes)
			)
		)
		(property "Value" "GND"
			(at 176.53 140.97 0)
			(effects
				(font
					(size 1.27 1.27)
				)
			)
		)
		(property "Footprint" ""
			(at 176.53 135.89 0)
			(effects
				(font
					(size 1.27 1.27)
				)
				(hide yes)
			)
		)
		(property "Datasheet" ""
			(at 176.53 135.89 0)
			(effects
				(font
					(size 1.27 1.27)
				)
				(hide yes)
			)
		)
		(property "Description" ""
			(at 176.53 135.89 0)
			(effects
				(font
					(size 1.27 1.27)
				)
				(hide yes)
			)
		)
		(pin "1"
			(uuid "838c7adc-ae32-4c60-8875-02b19312e44b")
		)
		(instances
			(project "BAdBoard"
				(path "/84ea24f9-c3a7-42ae-8166-99239c87be60/ab67ffbd-601f-444c-8f0e-59e4232999cc"
					(reference "#PWR034")
					(unit 1)
				)
			)
		)
	)
)
